County,Proportion with internet
Mombasa,28.2
Kwale,9.8
Kilifi,11.6
Tana River,5.5
Lamu,11.8
Taita-Taveta,15.9
Garissa,6.3
Wajir,3.5
Mandera,3.5
Marsabit,4.4
Isiolo,8.9
Meru,10.2
Tharaka-Nithi,11.5
Embu,14.7
Kitui,6.8
Machakos,17.6
Makueni,9.4
Nyandarua,12.4
Nyeri,21.2
Kirinyaga,13.6
Murang'a,11.9
Kiambu,39.1
Turkana,4.4
West Pokot,3.5
Samburu,6.8
Trans-Nzoia,11.0
Uasin Gishu,20.4
Elegeyo-Marakwet,5.0
Nandi,8.8
Baringo,8.2
Laikipia,17.5
Nakuru,20.9
Narok,6.9
Kajiado,29.1
Kericho,11.1
Bomet,8.0
Kakamega,8.6
Vihiga,8.8
Bungoma,7.2
Busia,7.4
Siaya,8.3
Kisumu,20.0
Homa Bay,8.2
Migori,9.1
Kisii,8.8
Nyamira,7.3
Nairobi (County),42.1
